0
0.537096
0.0498717
0.584947
0.0493621
0.667087
0.047168
0.682793
0.0464076
0.709633
0.0437422
0.539572
0.159348
0.540623
0.157816
0.479392
0.0802716
0.164058
0.145795
0.0572023
0.0919046
1
0.356821
0.219258
0.443982
0.223289
0.57229
0.197616
0.633707
0.177162
0.680198
0.158517
0.418427
0.336832
0.409207
0.131716
0.349829
0.258985
0.146161
0.119592
0.0361235
0.0384343
2
0.0656226
0.0386998
0.168704
0.156898
0.190193
0.321544
0.213007
0.0848311
0.211668
0.109765
0.167195
0.121316
0.161562
0.111363
0.142208
0.133786
0.048891
0.0372888
0.015829
0.0281813
